[
  {
    "Username": "John",
    "Password": "password1",
    "Roles": [
      { "Name": "PAGE_1" },
      { "Name": "PAGE_2" }
    ]
  },
  {
    "Username": "Eric",
    "Password": "password2",
    "Roles": [ { "Name": "PAGE_2" } ]
  },
  {
    "Username": "Nuria",
    "Password": "password3",
    "Roles": [ { "Name": "PAGE_3" } ]
  },
  {
    "Username": "Paula",
    "Password": "password4",
    "Roles": [
      { "Name": "PAGE_3" },
      { "Name": "ADMIN" }
    ]
  },
  {
    "Username": "Eric2",
    "Password": "password21",
    "Roles": null
  },
  {
    "Username": "miuser23",
    "Password": "mipass223",
    "Roles": null
  },
  {
    "Username": "miuser2555555",
    "Password": "mipass223555555",
    "Roles": null
  }
]